<?xml version="1.0" encoding="iso-8859-1"?>
<!-- Generator: Adobe Illustrator 19.0.0, SVG Export Plug-In . SVG Version: 6.00 Build 0)  -->
<svg version="1.1" id="Capa_1" xmlns="http://www.w3.org/2000/svg" xmlns:xlink="http://www.w3.org/1999/xlink" x="0px" y="0px"
	 viewBox="0 0 508.702 508.702" style="enable-background:new 0 0 508.702 508.702;" xml:space="preserve">
<g>
	<g>
		<g>
			<path d="M407.266,120.702l27.856-15.84c-5.738-10.041-12.299-19.588-19.616-28.544l-24.832,20.256
				C396.867,104.141,402.417,112.211,407.266,120.702z"/>
			<path d="M427.33,175.486l31.472-5.856c-2.111-11.369-5.178-22.539-9.168-33.392l-30.032,11.024
				C422.97,156.436,425.555,165.877,427.33,175.486z"/>
			<path d="M430.322,204.574v3.328c0.131,76.18-48.846,143.766-121.28,167.36l-5.264,1.712l-49.456,74.128l-49.456-74.096
				l-5.264-1.712C107.262,344.936,57.016,245.47,87.374,153.13c30.358-92.34,129.824-142.586,222.164-112.228
				c22.373,7.356,43.043,19.127,60.784,34.616l21.088-24C304.986-24.16,173.576-15.449,97.898,70.975
				s-66.967,217.834,19.457,293.512c19.657,17.213,42.381,30.568,66.983,39.367l69.984,104.848l69.984-104.88
				c82.858-29.483,138.151-107.973,138.016-195.92v-3.76L430.322,204.574z"/>
			<path d="M158.322,111.902v208h192v-128h-64v-80H158.322z M254.322,287.902h-64v-144h64V287.902z M318.322,223.902v64h-32v-64
				H318.322z"/>
		</g>
	</g>
</g>
<g>
</g>
<g>
</g>
<g>
</g>
<g>
</g>
<g>
</g>
<g>
</g>
<g>
</g>
<g>
</g>
<g>
</g>
<g>
</g>
<g>
</g>
<g>
</g>
<g>
</g>
<g>
</g>
<g>
</g>
</svg>
