<?xml version="1.0" encoding="iso-8859-1"?>
<!-- Generator: Adobe Illustrator 19.0.0, SVG Export Plug-In . SVG Version: 6.00 Build 0)  -->
<svg version="1.1" id="Capa_1" xmlns="http://www.w3.org/2000/svg" xmlns:xlink="http://www.w3.org/1999/xlink" x="0px" y="0px"
	 viewBox="0 0 502.606 502.606" style="enable-background:new 0 0 502.606 502.606;" xml:space="preserve">
<g>
	<g>
		<g>
			<path d="M339.183,38.046c-49.68-50.292-130.724-50.788-181.016-1.107s-50.788,130.724-1.107,181.016
				c0.364,0.369,0.731,0.735,1.099,1.1l90.512,90.512l90.512-90.512C389.162,169.068,389.162,88.032,339.183,38.046z
				 M316.559,196.43v0.016l-67.888,67.872l-67.888-67.888c-37.487-37.494-37.482-98.277,0.012-135.765
				c37.493-37.487,98.277-37.482,135.764,0.012C354.042,98.166,354.042,158.941,316.559,196.43z"/>
			<path d="M248.671,63.982c-35.346,0-64,28.654-64,64c0,35.346,28.654,64,64,64c35.346,0,64-28.654,64-64
				C312.671,92.636,284.017,63.982,248.671,63.982z M248.671,159.982c-17.673,0-32-14.327-32-32s14.327-32,32-32
				c17.673,0,32,14.327,32,32S266.344,159.982,248.671,159.982z"/>
			<polygon points="264.671,441.358 264.671,415.982 232.671,415.982 232.671,441.358 211.983,420.67 189.359,443.294 
				248.671,502.606 307.983,443.294 285.359,420.67 			"/>
			<rect x="115.932" y="315.68" transform="matrix(-0.6881 -0.7257 0.7257 -0.6881 -16.3595 651.864)" width="32" height="27.536"/>
			<polygon points="87.711,349.326 56.671,378.766 56.671,351.982 24.671,351.982 24.671,431.982 104.671,431.982 104.671,399.982 
				80.799,399.982 109.727,372.558 			"/>
			
				<rect x="356.888" y="313.469" transform="matrix(-0.7256 -0.6881 0.6881 -0.7256 412.8831 823.588)" width="27.536" height="32"/>
			<polygon points="445.935,351.982 445.935,378.766 414.879,349.326 392.863,372.558 421.791,399.982 397.935,399.982 
				397.935,431.982 477.935,431.982 477.935,351.982 			"/>
			<rect x="232.671" y="351.982" width="32" height="32"/>
		</g>
	</g>
</g>
<g>
</g>
<g>
</g>
<g>
</g>
<g>
</g>
<g>
</g>
<g>
</g>
<g>
</g>
<g>
</g>
<g>
</g>
<g>
</g>
<g>
</g>
<g>
</g>
<g>
</g>
<g>
</g>
<g>
</g>
</svg>
